Burnout-Forschung
…
## # A tibble: 1,500 x 9
##        exh    cyn    id time  median.exh median.cyn exh.status cyn.status pattern     
##      <dbl>  <dbl> <int> <chr>      <dbl>      <dbl> <ord>      <ord>      <chr>       
##  1  0.260  -0.396     1 t0        0.0173   -0.00211 high       low        inconsistent
##  2  1.31    1.18      2 t0        0.0173   -0.00211 high       high       burnout     
##  3  0.433   0.168     3 t0        0.0173   -0.00211 high       high       burnout     
##  4 -0.0866 -1.11      4 t0        0.0173   -0.00211 low        low        engagement  
##  5 -0.316  -0.710     5 t0        0.0173   -0.00211 low        low        engagement  
##  6  0.961   0.907     6 t0        0.0173   -0.00211 high       high       burnout     
##  7 -0.620   0.849     7 t0        0.0173   -0.00211 low        high       inconsistent
##  8  0.704  -0.882     8 t0        0.0173   -0.00211 high       low        inconsistent
##  9  0.707   1.31      9 t0        0.0173   -0.00211 high       high       burnout     
## 10  0.951  -1.31     10 t0        0.0173   -0.00211 high       low        inconsistent
## # … with 1,490 more rows

## # A tibble: 1,500 x 17
##        exh    cyn    id time  median.exh median.cyn exh.status cyn.status pattern
##      <dbl>  <dbl> <int> <chr>      <dbl>      <dbl> <ord>      <ord>      <chr>  
##  1  0.260  -0.396     1 t0        0.0173   -0.00211 high       low        incons…
##  2  1.31    1.18      2 t0        0.0173   -0.00211 high       high       burnout
##  3  0.433   0.168     3 t0        0.0173   -0.00211 high       high       burnout
##  4 -0.0866 -1.11      4 t0        0.0173   -0.00211 low        low        engage…
##  5 -0.316  -0.710     5 t0        0.0173   -0.00211 low        low        engage…
##  6  0.961   0.907     6 t0        0.0173   -0.00211 high       high       burnout
##  7 -0.620   0.849     7 t0        0.0173   -0.00211 low        high       incons…
##  8  0.704  -0.882     8 t0        0.0173   -0.00211 high       low        incons…
##  9  0.707   1.31      9 t0        0.0173   -0.00211 high       high       burnout
## 10  0.951  -1.31     10 t0        0.0173   -0.00211 high       low        incons…
## # … with 1,490 more rows, and 8 more variables: workload <dbl>, control <dbl>,
## #   reward <dbl>, community <dbl>, fairness <dbl>, values <dbl>, time.int <dbl>,
## #   time.jit <dbl>

## # A tibble: 500 x 7
##       id exh.status_t0 exh.status_t1 exh.status_t2 cyn.status_t0 cyn.status_t1
##    <int> <ord>         <ord>         <ord>         <ord>         <ord>        
##  1     1 high          high          high          low           low          
##  2     2 high          high          high          high          high         
##  3     3 high          low           high          high          low          
##  4     4 low           high          high          low           low          
##  5     5 low           low           low           low           low          
##  6     6 high          high          low           high          high         
##  7     7 low           high          low           high          high         
##  8     8 high          high          high          low           low          
##  9     9 high          high          high          high          high         
## 10    10 high          high          high          low           low          
## # … with 490 more rows, and 1 more variable: cyn.status_t2 <ord>

## # A tibble: 500 x 4
##       id pattern_t0   pattern_t1   pattern_t2  
##    <int> <chr>        <chr>        <chr>       
##  1     1 inconsistent inconsistent inconsistent
##  2     2 burnout      burnout      inconsistent
##  3     3 burnout      engagement   burnout     
##  4     4 engagement   inconsistent inconsistent
##  5     5 engagement   engagement   engagement  
##  6     6 burnout      burnout      engagement  
##  7     7 inconsistent burnout      engagement  
##  8     8 inconsistent inconsistent inconsistent
##  9     9 burnout      burnout      burnout     
## 10    10 inconsistent inconsistent inconsistent
## # … with 490 more rows
…
