Konfundierung
…
Die Story

Nehmen wir einmal an, wir möchten die Wirkung einer neuen Psychotherapiemethode testen. Die Methode, um die es geht, ist die (fiktive) sogenannte “Emotions-Ablösungs-Therapie”. Sie funktioniert so: Patient:innen mit schwerer klinischer Depression ziehen sich zu Beginn einer Therapiesitzung einen schweren Mantel an. Während der Sitzung lassen die Patient:innen insbesondere ihren negativen Emotionen freien Lauf. Dabei stellen die Patient:innen sich vor, wie sie ihre Emotionen in den Mantel abgeben. Am Ende der häufig sowohl für Therapeut:in, als auch für Patient:in sehr anstrengenden Sitzung, wird der Mantel und damit die negative Emotionalität einfach abgelegt.

Ein norwegisches Forschungsteam hat kürzlich eine Pressekonferenz abgehalten, in der sie von vielversprechenden Ergebnissen einer ersten Studie berichten. Nach einem 12-wöchigen experimentellen Therapieprogramm in der Wartezeit auf einen herkömmlichen Therapieplatz wiesen die Teilnehmenden deutlich geringere Werte in Becks Depressions-Inventar auf, als vor der Therapie.

Die Analyse

Hier zunächst ein Blick auf die Daten der ersten beiden Versuchspersonen. Die Spalte id enthält eine Zahl zur identifizierung der Versuchsperson, time zeigt den Messzeitpunkt (“pre” = vor der Behandlung, “post” = nach der Behandlung) und bdi enthält den BDI-Summenscore, der Versuchsperson zum jeweiligen Zeitpunkt. Es gibt zwei Zeitpunkte und daher bei diesem Datenformat (“long” Format genannt) zwei Zeilen pro Person.

## # A tibble: 120 x 3
##      id time    bdi
##   <int> <fct> <dbl>
## 1     1 pre      56
## 2     1 post     48
## 3     2 pre      54
## 4     2 post     52
## # … with 116 more rows
…
